{
    "attributes": {
        "proto": "categorical",
        "service": "categorical",
        "state": "categorical",
        "attack_cat": "categorical",
        "dur": "numerical",
        "spkts": "numerical",
        "dpkts": "numerical",
        "sbytes": "numerical",
        "dbytes": "numerical",
        "rate": "numerical",
        "sttl": "numerical",
        "dttl": "numerical",
        "sload": "numerical",
        "dload": "numerical",
        "sloss": "numerical",
        "dloss": "numerical",
        "sinpkt": "numerical",
        "dinpkt": "numerical",
        "synack": "numerical",
        "ackdat": "numerical",
        "smean": "numerical",
        "dmean": "numerical",
        "trans_depth": "numerical",
        "response_body_len": "numerical",
        "ct_srv_src": "numerical",
        "ct_dst_ltm": "numerical",
        "ct_src_dport_ltm": "numerical",
        "ct_dst_sport_ltm": "numerical",
        "ct_dst_src_ltm": "numerical",
        "ct_ftp_cmd": "numerical",
        "ct_flw_http_mthd": "numerical",
        "ct_src_ltm": "numerical",
        "ct_srv_dst": "numerical",
        "is_ftp_login": "binary",
        "is_sm_ips_ports": "binary"
    },
    "network": {
        "proto": {
            "type": "categorical",
            "output_size": 8,
            "voc_size": 8
        },
        "service": {
            "type": "categorical",
            "output_size": 11,
            "voc_size": 11
        },
        "state": {
            "type": "categorical",
            "output_size": 10,
            "voc_size": 10
        },
        "attack_cat": {
            "type": "categorical",
            "output_size": 2,
            "voc_size": 2
        },
        "dur": {
            "type": "numerical",
            "output_size": 2
        },
        "spkts": {
            "type": "numerical",
            "output_size": 2
        },
        "dpkts": {
            "type": "numerical",
            "output_size": 2
        },
        "sbytes": {
            "type": "numerical",
            "output_size": 2
        },
        "dbytes": {
            "type": "numerical",
            "output_size": 2
        },
        "rate": {
            "type": "numerical",
            "output_size": 2
        },
        "sttl": {
            "type": "numerical",
            "output_size": 2
        },
        "dttl": {
            "type": "numerical",
            "output_size": 2
        },
        "sload": {
            "type": "numerical",
            "output_size": 2
        },
        "dload": {
            "type": "numerical",
            "output_size": 2
        },
        "sloss": {
            "type": "numerical",
            "output_size": 2
        },
        "dloss": {
            "type": "numerical",
            "output_size": 2
        },
        "sinpkt": {
            "type": "numerical",
            "output_size": 2
        },
        "dinpkt": {
            "type": "numerical",
            "output_size": 2
        },
        "synack": {
            "type": "numerical",
            "output_size": 2
        },
        "ackdat": {
            "type": "numerical",
            "output_size": 2
        },
        "smean": {
            "type": "numerical",
            "output_size": 2
        },
        "dmean": {
            "type": "numerical",
            "output_size": 2
        },
        "trans_depth": {
            "type": "numerical",
            "output_size": 2
        },
        "response_body_len": {
            "type": "numerical",
            "output_size": 2
        },
        "ct_srv_src": {
            "type": "numerical",
            "output_size": 2
        },
        "ct_dst_ltm": {
            "type": "numerical",
            "output_size": 2
        },
        "ct_src_dport_ltm": {
            "type": "numerical",
            "output_size": 2
        },
        "ct_dst_sport_ltm": {
            "type": "numerical",
            "output_size": 2
        },
        "ct_dst_src_ltm": {
            "type": "numerical",
            "output_size": 2
        },
        "ct_ftp_cmd": {
            "type": "numerical",
            "output_size": 2
        },
        "ct_flw_http_mthd": {
            "type": "numerical",
            "output_size": 2
        },
        "ct_src_ltm": {
            "type": "numerical",
            "output_size": 2
        },
        "ct_srv_dst": {
            "type": "numerical",
            "output_size": 2
        },
        "is_ftp_login": {
            "type": "binary",
            "output_size": 2
        },
        "is_sm_ips_ports": {
            "type": "binary",
            "output_size": 2
        }
    }
}